{
  "fromHash": "2e0de77556339816ab1549d4ca9563b00470fc84",
  "toHash": "eaac0cd28c65224f7d315bd703a0e7b03607189e",
  "contextLines": 10,
  "whitespace": "SHOW",
  "diffs": [
    {
      "source": {
        "components": [
          "README.md"
        ],
        "parent": "",
        "name": "README.md",
        "extension": "md",
        "toString": "README.md"
      },
      "destination": {
        "components": [
          "README.md"
        ],
        "parent": "",
        "name": "README.md",
        "extension": "md",
        "toString": "README.md"
      },
      "hunks": [
        {
          "sourceLine": 11,
          "sourceSpan": 20,
          "destinationLine": 11,
          "destinationSpan": 24,
          "segments": [
            {
              "type": "CONTEXT",
              "lines": [
                {
                  "source": 11,
                  "destination": 11,
                  "line": "* open selected file or selected lines in the file in Bitbucket in your Browser (`Ctrl+Shift+X,B` on Windows / `Cmd+Shift+X,B` on Mac)",
                  "truncated": false
                },
                {
                  "source": 12,
                  "destination": 12,
                  "line": "* open selected commit in Bitbucket in your Browser (from the gutter context menu)",
                  "truncated": false
                },
                {
                  "source": 13,
                  "destination": 13,
                  "line": "",
                  "truncated": false
                },
                {
                  "source": 14,
                  "destination": 14,
                  "line": "Bitbucket Linky supports both **Bitbucket Cloud** and **Bitbucket Server** (formerly known as **Stash**).",
                  "truncated": false
                },
                {
                  "source": 15,
                  "destination": 15,
                  "line": "                ",
                  "truncated": false
                },
                {
                  "source": 16,
                  "destination": 16,
                  "line": "The plugin uses your project's VCS settings (supports both Git and Mercurial) to build links ",
                  "truncated": false
                },
                {
                  "source": 17,
                  "destination": 17,
                  "line": "to the repository in Bitbucket, hence no configuration is needed.",
                  "truncated": false
                },
                {
                  "source": 18,
                  "destination": 18,
                  "line": "",
                  "truncated": false
                },
                {
                  "source": 19,
                  "destination": 19,
                  "line": "#### Please note that this plugin is not officially supported by Atlassian.",
                  "truncated": false
                },
                {
                  "source": 20,
                  "destination": 20,
                  "line": "",
                  "truncated": false
                }
              ],
              "truncated": false
            },
            {
              "type": "ADDED",
              "lines": [
                {
                  "source": 21,
                  "destination": 21,
                  "line": "",
                  "truncated": false
                },
                {
                  "source": 21,
                  "destination": 22,
                  "line": "Lorem ipsum dolor sit amet, ut viris virtute debitis nec, eum et nominavi abhorreant. Vis ea propriae expetendis, aeque intellegam qui ad. Et cum intellegat consequuntur. Sed ex habemus convenire, ad has labitur petentium, detracto copiosae ea vix.",
                  "truncated": false,
                  "commentIds": [
                    131842
                  ]
                },
                {
                  "source": 21,
                  "destination": 23,
                  "line": "",
                  "truncated": false
                },
                {
                  "source": 21,
                  "destination": 24,
                  "line": "",
                  "truncated": false
                }
              ],
              "truncated": false
            },
            {
              "type": "CONTEXT",
              "lines": [
                {
                  "source": 21,
                  "destination": 25,
                  "line": "## Development",
                  "truncated": false
                },
                {
                  "source": 22,
                  "destination": 26,
                  "line": "",
                  "truncated": false
                },
                {
                  "source": 23,
                  "destination": 27,
                  "line": "To build the plugin you will need:",
                  "truncated": false,
                  "commentIds": [
                    131843,
                    131844
                  ]
                },
                {
                  "source": 24,
                  "destination": 28,
                  "line": "",
                  "truncated": false
                },
                {
                  "source": 25,
                  "destination": 29,
                  "line": "* [set up IntelliJ Platform SDK](http://www.jetbrains.org/intellij/sdk/docs/basics/getting_started/setting_up_environment.html)",
                  "truncated": false
                },
                {
                  "source": 26,
                  "destination": 30,
                  "line": "* add `git4idea` and `hg4idea` plugin jars to the classpath of IntelliJ Platform SDK (plugins are in `IDEA_HOME/plugins` directory)",
                  "truncated": false
                },
                {
                  "source": 27,
                  "destination": 31,
                  "line": "* create new IDEA project of type `IntelliJ Platform Plugin`",
                  "truncated": false
                },
                {
                  "source": 28,
                  "destination": 32,
                  "line": "* point it to the directory containing this file",
                  "truncated": false
                },
                {
                  "source": 29,
                  "destination": 33,
                  "line": "* once the project is opened, mark src directory as `Sources Root`, `test` as `Test Sources Root` and `resources`",
                  "truncated": false
                },
                {
                  "source": 30,
                  "destination": 34,
                  "line": "  as `Resources Root`",
                  "truncated": false
                }
              ],
              "truncated": false
            }
          ],
          "truncated": false
        }
      ],
      "truncated": false,
      "lineComments": [
        {
          "properties": {
            "repositoryId": 8456
          },
          "id": 131842,
          "version": 0,
          "text": "What's this?",
          "author": {
            "name": "dpenkin",
            "emailAddress": "dpenkin@atlassian.com",
            "id": 59458,
            "displayName": "Daniil Penkin",
            "active": true,
            "slug": "dpenkin",
            "type": "NORMAL"
          },
          "createdDate": 1449703400000,
          "updatedDate": 1449703400000,
          "comments": [
            {
              "properties": {
                "repositoryId": 8456
              },
              "id": 131845,
              "version": 0,
              "text": "Hahaha",
              "author": {
                "name": "dpenkin",
                "emailAddress": "dpenkin@atlassian.com",
                "id": 59458,
                "displayName": "Daniil Penkin",
                "active": true,
                "slug": "dpenkin",
                "type": "NORMAL"
              },
              "createdDate": 1449705516691,
              "updatedDate": 1449705516691,
              "comments": [],
              "tasks": [],
              "permittedOperations": {
                "editable": true,
                "deletable": true
              }
            }
          ],
          "tasks": [],
          "permittedOperations": {
            "editable": true,
            "deletable": true
          }
        },
        {
          "properties": {
            "repositoryId": 8456
          },
          "id": 131843,
          "version": 0,
          "text": "New one",
          "author": {
            "name": "dpenkin",
            "emailAddress": "dpenkin@atlassian.com",
            "id": 59458,
            "displayName": "Daniil Penkin",
            "active": true,
            "slug": "dpenkin",
            "type": "NORMAL"
          },
          "createdDate": 1449703900000,
          "updatedDate": 1449703900000,
          "comments": [],
          "tasks": [],
          "permittedOperations": {
            "editable": true,
            "deletable": true
          }
        },
        {
          "properties": {
            "repositoryId": 8456
          },
          "id": 131844,
          "version": 0,
          "text": "Another new one",
          "author": {
            "name": "dpenkin",
            "emailAddress": "dpenkin@atlassian.com",
            "id": 59458,
            "displayName": "Daniil Penkin",
            "active": true,
            "slug": "dpenkin",
            "type": "NORMAL"
          },
          "createdDate": 1449703935000,
          "updatedDate": 1449703935000,
          "comments": [],
          "tasks": [],
          "permittedOperations": {
            "editable": true,
            "deletable": true
          }
        }
      ]
    }
  ],
  "truncated": false
}