{
  "id": 2,
  "version": 0,
  "title": "Remove development section from readme",
  "state": "OPEN",
  "open": true,
  "closed": false,
  "createdDate": 1449532060000,
  "updatedDate": 1449532060000,
  "fromRef": {
    "id": "refs/heads/bugfix/remove-half-of-readme",
    "displayId": "bugfix/remove-half-of-readme",
    "latestCommit": "4b319c9c652a5f961d6196750f05f5a351a3f26d",
    "repository": {
      "slug": "test-repository",
      "id": 8456,
      "name": "test-repository",
      "scmId": "git",
      "state": "AVAILABLE",
      "statusMessage": "Available",
      "forkable": true,
      "project": {
        "key": "~DPENKIN",
        "id": 7203,
        "name": "Daniil Penkin",
        "type": "PERSONAL",
        "owner": {
          "name": "dpenkin",
          "emailAddress": "dpenkin@atlassian.com",
          "id": 59458,
          "displayName": "Daniil Penkin",
          "active": true,
          "slug": "dpenkin",
          "type": "NORMAL",
          "links": {
            "self": [
              {
                "href": "https://stash.dev.internal.atlassian.com/users/dpenkin"
              }
            ]
          }
        },
        "links": {
          "self": [
            {
              "href": "https://stash.dev.internal.atlassian.com/users/dpenkin"
            }
          ]
        }
      },
      "public": true,
      "links": {
        "clone": [
          {
            "href": "https://dpenkin@stash.dev.internal.atlassian.com/scm/~dpenkin/test-repository.git",
            "name": "http"
          },
          {
            "href": "ssh://git@stash.dev.internal.atlassian.com:7999/~dpenkin/test-repository.git",
            "name": "ssh"
          }
        ],
        "self": [
          {
            "href": "https://stash.dev.internal.atlassian.com/users/dpenkin/repos/test-repository/browse"
          }
        ]
      }
    }
  },
  "toRef": {
    "id": "refs/heads/master",
    "displayId": "master",
    "latestCommit": "96f31e7a9061192660550dbbe982c682b52d4668",
    "repository": {
      "slug": "test-repository",
      "id": 8456,
      "name": "test-repository",
      "scmId": "git",
      "state": "AVAILABLE",
      "statusMessage": "Available",
      "forkable": true,
      "project": {
        "key": "~DPENKIN",
        "id": 7203,
        "name": "Daniil Penkin",
        "type": "PERSONAL",
        "owner": {
          "name": "dpenkin",
          "emailAddress": "dpenkin@atlassian.com",
          "id": 59458,
          "displayName": "Daniil Penkin",
          "active": true,
          "slug": "dpenkin",
          "type": "NORMAL",
          "links": {
            "self": [
              {
                "href": "https://stash.dev.internal.atlassian.com/users/dpenkin"
              }
            ]
          }
        },
        "links": {
          "self": [
            {
              "href": "https://stash.dev.internal.atlassian.com/users/dpenkin"
            }
          ]
        }
      },
      "public": true,
      "links": {
        "clone": [
          {
            "href": "https://dpenkin@stash.dev.internal.atlassian.com/scm/~dpenkin/test-repository.git",
            "name": "http"
          },
          {
            "href": "ssh://git@stash.dev.internal.atlassian.com:7999/~dpenkin/test-repository.git",
            "name": "ssh"
          }
        ],
        "self": [
          {
            "href": "https://stash.dev.internal.atlassian.com/users/dpenkin/repos/test-repository/browse"
          }
        ]
      }
    }
  },
  "locked": false,
  "author": {
    "user": {
      "name": "dpenkin",
      "emailAddress": "dpenkin@atlassian.com",
      "id": 59458,
      "displayName": "Daniil Penkin",
      "active": true,
      "slug": "dpenkin",
      "type": "NORMAL",
      "links": {
        "self": [
          {
            "href": "https://stash.dev.internal.atlassian.com/users/dpenkin"
          }
        ]
      }
    },
    "role": "AUTHOR",
    "approved": false,
    "status": "UNAPPROVED"
  },
  "reviewers": [],
  "participants": [],
  "links": {
    "self": [
      {
        "href": "https://stash.dev.internal.atlassian.com/users/dpenkin/repos/test-repository/pull-requests/2"
      }
    ]
  }
}