{
  "merge_commit": null,
  "description": "* Add file in a directory containing spaces\r\n\r\n* Another change for same PR\r\n\r\n* Add directory and file with umlauts\r\n\r\n* Two symbol diaeresis",
  "links": {
    "decline": {
      "href": "https://api.bitbucket.org/2.0/repositories/dpenkin/another-project/pullrequests/1/decline"
    },
    "commits": {
      "href": "https://api.bitbucket.org/2.0/repositories/dpenkin/another-project/pullrequests/1/commits"
    },
    "self": {
      "href": "https://api.bitbucket.org/2.0/repositories/dpenkin/another-project/pullrequests/1"
    },
    "comments": {
      "href": "https://api.bitbucket.org/2.0/repositories/dpenkin/another-project/pullrequests/1/comments"
    },
    "merge": {
      "href": "https://api.bitbucket.org/2.0/repositories/dpenkin/another-project/pullrequests/1/merge"
    },
    "html": {
      "href": "https://bitbucket.org/dpenkin/another-project/pull-requests/1"
    },
    "activity": {
      "href": "https://api.bitbucket.org/2.0/repositories/dpenkin/another-project/pullrequests/1/activity"
    },
    "diff": {
      "href": "https://api.bitbucket.org/2.0/repositories/dpenkin/another-project/pullrequests/1/diff"
    },
    "approve": {
      "href": "https://api.bitbucket.org/2.0/repositories/dpenkin/another-project/pullrequests/1/approve"
    }
  },
  "title": "Branch with path with spaces",
  "close_source_branch": true,
  "reviewers": [],
  "destination": {
    "commit": {
      "hash": "94cd63bd41d6",
      "links": {
        "self": {
          "href": "https://api.bitbucket.org/2.0/repositories/dpenkin/another-project/commit/94cd63bd41d6"
        }
      }
    },
    "repository": {
      "links": {
        "self": {
          "href": "https://api.bitbucket.org/2.0/repositories/dpenkin/another-project"
        },
        "html": {
          "href": "https://bitbucket.org/dpenkin/another-project"
        },
        "avatar": {
          "href": "https://bitbucket.org/dpenkin/another-project/avatar/32/"
        }
      },
      "type": "repository",
      "name": "another-project",
      "full_name": "dpenkin/another-project",
      "uuid": "{6e202c6a-6cb6-4142-aaf6-f2d2e0c2fd44}"
    },
    "branch": {
      "name": "master"
    }
  },
  "state": "OPEN",
  "closed_by": null,
  "source": {
    "commit": {
      "hash": "153d38140b78",
      "links": {
        "self": {
          "href": "https://api.bitbucket.org/2.0/repositories/dpenkin/another-project/commit/153d38140b78"
        }
      }
    },
    "repository": {
      "links": {
        "self": {
          "href": "https://api.bitbucket.org/2.0/repositories/dpenkin/another-project"
        },
        "html": {
          "href": "https://bitbucket.org/dpenkin/another-project"
        },
        "avatar": {
          "href": "https://bitbucket.org/dpenkin/another-project/avatar/32/"
        }
      },
      "type": "repository",
      "name": "another-project",
      "full_name": "dpenkin/another-project",
      "uuid": "{6e202c6a-6cb6-4142-aaf6-f2d2e0c2fd44}"
    },
    "branch": {
      "name": "branch-with-path-with-spaces"
    }
  },
  "comment_count": 3,
  "author": {
    "username": "dpenkin",
    "display_name": "Daniil Penkin",
    "type": "user",
    "uuid": "{c28ad334-3dd3-48cc-b19b-ee0427cf3754}",
    "links": {
      "self": {
        "href": "https://api.bitbucket.org/2.0/users/dpenkin"
      },
      "html": {
        "href": "https://bitbucket.org/dpenkin/"
      },
      "avatar": {
        "href": "https://bitbucket.org/account/dpenkin/avatar/32/"
      }
    }
  },
  "created_on": "2016-02-26T06:47:48.843654+00:00",
  "participants": [
    {
      "role": "PARTICIPANT",
      "type": "participant",
      "user": {
        "username": "dpenkin",
        "display_name": "Daniil Penkin",
        "type": "user",
        "uuid": "{c28ad334-3dd3-48cc-b19b-ee0427cf3754}",
        "links": {
          "self": {
            "href": "https://api.bitbucket.org/2.0/users/dpenkin"
          },
          "html": {
            "href": "https://bitbucket.org/dpenkin/"
          },
          "avatar": {
            "href": "https://bitbucket.org/account/dpenkin/avatar/32/"
          }
        }
      },
      "approved": false
    }
  ],
  "reason": "",
  "updated_on": "2016-03-01T14:31:06.417287+00:00",
  "type": "pullrequest",
  "id": 1,
  "task_count": 0
}